[{
  "_id": {
    "$oid": "5fd36d18f613cf0d4c0c610a"
  },
  "name": "Omer",
  "email": "omer@stupidmail.com",
  "password": "$2a$12$0DRvX7OP8/M31tkwMR8j2.sUjfvGcDgIe3kvPLEgNvNLHG8OPbRpG",
  "cart": {
    "items": []
  },
  "__v": 0
}]